<?xml version="1.0" encoding="utf-8"?>
<!-- Generated by IcoMoon.io -->
<!DOCTYPE svg PUBLIC "-//W3C//DTD SVG 1.1//EN" "http://www.w3.org/Graphics/SVG/1.1/DTD/svg11.dtd">
<svg version="1.1" xmlns="http://www.w3.org/2000/svg" xmlns:xlink="http://www.w3.org/1999/xlink" width="32" height="32" viewBox="0 0 32 32">
<g id="icomoon-ignore">
</g>
<path d="M2 30v-28h-2v30h30v-2l-28 0zM4.031 0l-0.010 28.021h27.979v-28.021h-27.969zM12 10v2h-2v-2h2zM10.001 8v-1.999h1.999v1.999h-1.999zM28 24l-20-0.006v-7.994h20v8zM26 6v2h-12v-2h12zM26 10v2.001h-12v-2.001h12zM28 4h-20v-2h20v2z" fill="#000000"></path>
</svg>
